{
    "name": "Moodle App for Kube dev",
    "remoteUser": "vscode",
    "settings": {
      "debug.node.autoAttach": "disabled"
    },
    "dockerComposeFile": "./compose.yml",
    "service": "development",
    "workspaceFolder": "/workspace",
    "shutdownAction": "stopCompose",
    "extensions": [
      "ms-python.python",
      "visualstudioexptteam.vscodeintellicode"
    ]
  }